# Blender v2.79 (sub 0) OBJ File: ''
# www.blender.org
o Cube
v 1.199477 -0.878626 -1.032411
v 1.199477 -0.878626 0.967589
v -0.800523 -0.878626 0.967589
v -0.800522 -0.878626 -1.032411
v 6.575440 0.651559 0.766679
v 1.199477 1.121374 0.967590
v -0.800523 1.121374 0.967589
v -0.800523 1.121374 -1.032411
v 6.575440 -0.348441 0.766678
v 1.199477 0.121374 0.967589
v -0.800523 0.121374 0.967589
v -0.800523 0.121374 -1.032411
vn 0.0000 -1.0000 0.0000
vn 0.0837 0.9930 -0.0837
vn 0.0373 -0.0000 0.9993
vn -0.0000 -0.0000 1.0000
vn -1.0000 -0.0000 -0.0000
vn 0.2370 0.4741 -0.8480
vn 0.2370 0.0000 -0.9715
vn 0.0981 -0.9952 0.0000
vn 0.0000 1.0000 0.0000
vn 0.0000 0.0000 -1.0000
s off
f 2//1 4//1 1//1
f 8//2 6//2 5//2
f 5//3 10//3 9//3
f 6//4 11//4 10//4
f 7//5 12//5 11//5
f 1//6 12//6 9//6
f 5//7 12//7 8//7
f 11//5 4//5 3//5
f 10//4 3//4 2//4
f 9//8 2//8 1//8
f 2//1 3//1 4//1
f 8//9 7//9 6//9
f 5//3 6//3 10//3
f 6//4 7//4 11//4
f 7//5 8//5 12//5
f 1//10 4//10 12//10
f 5//7 9//7 12//7
f 11//5 12//5 4//5
f 10//4 11//4 3//4
f 9//3 10//3 2//3
